DESCOMP/AULA2/ATV1/simulation/qsim/memoria.msim.vcd
$comment
	File created using the following command:
		vcd file memoria.msim.vcd -direction
$end
$date
	Fri Feb 16 17:14:50 2024
$end
$version
	ModelSim Version 2020.1
$end
$timescale
	1ps
$end

$scope module memoria_vhd_vec_tst $end
$var wire 1 ! Dado [7] $end
$var wire 1 " Dado [6] $end
$var wire 1 # Dado [5] $end
$var wire 1 $ Dado [4] $end
$var wire 1 % Dado [3] $end
$var wire 1 & Dado [2] $end
$var wire 1 ' Dado [1] $end
$var wire 1 ( Dado [0] $end
$var wire 1 ) Endereco [9] $end
$var wire 1 * Endereco [8] $end
$var wire 1 + Endereco [7] $end
$var wire 1 , Endereco [6] $end
$var wire 1 - Endereco [5] $end
$var wire 1 . Endereco [4] $end
$var wire 1 / Endereco [3] $end
$var wire 1 0 Endereco [2] $end
$var wire 1 1 Endereco [1] $end
$var wire 1 2 Endereco [0] $end

$scope module i1 $end
$var wire 1 3 gnd $end
$var wire 1 4 vcc $end
$var wire 1 5 unknown $end
$var wire 1 6 devoe $end
$var wire 1 7 devclrn $end
$var wire 1 8 devpor $end
$var wire 1 9 ww_devoe $end
$var wire 1 : ww_devclrn $end
$var wire 1 ; ww_devpor $end
$var wire 1 < ww_Endereco [9] $end
$var wire 1 = ww_Endereco [8] $end
$var wire 1 > ww_Endereco [7] $end
$var wire 1 ? ww_Endereco [6] $end
$var wire 1 @ ww_Endereco [5] $end
$var wire 1 A ww_Endereco [4] $end
$var wire 1 B ww_Endereco [3] $end
$var wire 1 C ww_Endereco [2] $end
$var wire 1 D ww_Endereco [1] $end
$var wire 1 E ww_Endereco [0] $end
$var wire 1 F ww_Dado [7] $end
$var wire 1 G ww_Dado [6] $end
$var wire 1 H ww_Dado [5] $end
$var wire 1 I ww_Dado [4] $end
$var wire 1 J ww_Dado [3] $end
$var wire 1 K ww_Dado [2] $end
$var wire 1 L ww_Dado [1] $end
$var wire 1 M ww_Dado [0] $end
$var wire 1 N \Dado[0]~output_o\ $end
$var wire 1 O \Dado[1]~output_o\ $end
$var wire 1 P \Dado[2]~output_o\ $end
$var wire 1 Q \Dado[3]~output_o\ $end
$var wire 1 R \Dado[4]~output_o\ $end
$var wire 1 S \Dado[5]~output_o\ $end
$var wire 1 T \Dado[6]~output_o\ $end
$var wire 1 U \Dado[7]~output_o\ $end
$var wire 1 V \Endereco[3]~input_o\ $end
$var wire 1 W \Endereco[2]~input_o\ $end
$var wire 1 X \Endereco[1]~input_o\ $end
$var wire 1 Y \Endereco[0]~input_o\ $end
$var wire 1 Z \Endereco[4]~input_o\ $end
$var wire 1 [ \Endereco[5]~input_o\ $end
$var wire 1 \ \Endereco[6]~input_o\ $end
$var wire 1 ] \Endereco[7]~input_o\ $end
$var wire 1 ^ \Endereco[8]~input_o\ $end
$var wire 1 _ \Endereco[9]~input_o\ $end
$var wire 1 ` \memROM~0_combout\ $end
$var wire 1 a \memROM~6_combout\ $end
$var wire 1 b \memROM~1_combout\ $end
$var wire 1 c \memROM~5_combout\ $end
$var wire 1 d \memROM~4_combout\ $end
$var wire 1 e \memROM~2_combout\ $end
$var wire 1 f \memROM~3_combout\ $end
$var wire 1 g \ALT_INV_memROM~0_combout\ $end
$var wire 1 h \ALT_INV_Endereco[0]~input_o\ $end
$var wire 1 i \ALT_INV_Endereco[1]~input_o\ $end
$var wire 1 j \ALT_INV_Endereco[2]~input_o\ $end
$var wire 1 k \ALT_INV_Endereco[3]~input_o\ $end
$var wire 1 l \ALT_INV_Endereco[4]~input_o\ $end
$var wire 1 m \ALT_INV_Endereco[5]~input_o\ $end
$var wire 1 n \ALT_INV_Endereco[6]~input_o\ $end
$var wire 1 o \ALT_INV_Endereco[7]~input_o\ $end
$var wire 1 p \ALT_INV_Endereco[9]~input_o\ $end
$var wire 1 q \ALT_INV_Endereco[8]~input_o\ $end
$upscope $end
$upscope $end
$enddefinitions $end
#0
$dumpvars
03
14
x5
16
17
18
19
1:
1;
0N
0O
1P
1Q
0R
0S
1T
0U
0V
0W
0X
0Y
0Z
0[
0\
0]
0^
0_
1`
0a
0b
1c
1d
0e
1f
0g
1h
1i
1j
1k
1l
1m
1n
1o
1p
1q
0)
0*
0+
0,
0-
0.
0/
00
01
02
0<
0=
0>
0?
0@
0A
0B
0C
0D
0E
0F
1G
0H
0I
1J
1K
0L
0M
0!
1"
0#
0$
1%
1&
0'
0(
$end
#10000
12
1E
1Y
0h
1a
0d
1e
1R
0Q
1N
1I
0J
1M
1(
0%
1$
#20000
02
11
0E
1D
1X
0Y
1h
0i
0c
0e
0R
0P
0I
0K
0&
0$
#30000
12
1E
1Y
0h
0a
1b
1c
1d
1Q
1P
1O
0N
1J
1K
1L
0M
0(
1'
1&
1%
#40000
02
01
10
0E
0D
1C
1W
0X
0Y
1h
1i
0j
1a
0b
0c
0d
0Q
0P
0O
1N
0J
0K
0L
1M
1(
0'
0&
0%
#50000
12
1E
1Y
0h
0a
0f
0T
0N
0G
0M
0(
0"
#60000
02
11
0E
1D
1X
0Y
1h
0i
#70000
12
1E
1Y
0h
#80000
02
01
00
1/
0E
0D
0C
1B
1V
0W
0X
0Y
1h
1i
1j
0k
#90000
12
1E
1Y
0h
#100000
02
11
0E
1D
1X
0Y
1h
0i
#110000
12
1E
1Y
0h
#120000
02
01
10
0E
0D
1C
1W
0X
0Y
1h
1i
0j
#130000
12
1E
1Y
0h
#140000
02
11
0E
1D
1X
0Y
1h
0i
#150000
12
1E
1Y
0h
#160000
02
01
00
0/
1.
0E
0D
0C
0B
1A
1Z
0V
0W
0X
0Y
1h
1i
1j
1k
0l
0`
1c
1d
1f
1g
0c
0d
0f
1T
1Q
1P
1G
1J
1K
1&
1%
1"
0T
0Q
0P
0G
0J
0K
0&
0%
0"
#170000
12
1E
1Y
0h
#180000
02
11
0E
1D
1X
0Y
1h
0i
#190000
12
1E
1Y
0h
#200000
02
01
10
0E
0D
1C
1W
0X
0Y
1h
1i
0j
#210000
12
1E
1Y
0h
#220000
02
11
0E
1D
1X
0Y
1h
0i
#230000
12
1E
1Y
0h
#240000
02
01
00
1/
0E
0D
0C
1B
1V
0W
0X
0Y
1h
1i
1j
0k
#250000
12
1E
1Y
0h
#260000
02
11
0E
1D
1X
0Y
1h
0i
#270000
12
1E
1Y
0h
#280000
02
01
10
0E
0D
1C
1W
0X
0Y
1h
1i
0j
#290000
12
1E
1Y
0h
#300000
02
11
0E
1D
1X
0Y
1h
0i
#310000
12
1E
1Y
0h
#320000
02
01
00
0/
0.
1-
0E
0D
0C
0B
0A
1@
1[
0Z
0V
0W
0X
0Y
1h
1i
1j
1k
1l
0m
#330000
12
1E
1Y
0h
#340000
02
11
0E
1D
1X
0Y
1h
0i
#350000
12
1E
1Y
0h
#360000
02
01
10
0E
0D
1C
1W
0X
0Y
1h
1i
0j
#370000
12
1E
1Y
0h
#380000
02
11
0E
1D
1X
0Y
1h
0i
#390000
12
1E
1Y
0h
#400000
02
01
00
1/
0E
0D
0C
1B
1V
0W
0X
0Y
1h
1i
1j
0k
#410000
12
1E
1Y
0h
#420000
02
11
0E
1D
1X
0Y
1h
0i
#430000
12
1E
1Y
0h
#440000
02
01
10
0E
0D
1C
1W
0X
0Y
1h
1i
0j
#450000
12
1E
1Y
0h
#460000
02
11
0E
1D
1X
0Y
1h
0i
#470000
12
1E
1Y
0h
#480000
02
01
00
0/
1.
0E
0D
0C
0B
1A
1Z
0V
0W
0X
0Y
1h
1i
1j
1k
0l
#490000
12
1E
1Y
0h
#500000
02
11
0E
1D
1X
0Y
1h
0i
#510000
12
1E
1Y
0h
#520000
02
01
10
0E
0D
1C
1W
0X
0Y
1h
1i
0j
#530000
12
1E
1Y
0h
#540000
02
11
0E
1D
1X
0Y
1h
0i
#550000
12
1E
1Y
0h
#560000
02
01
00
1/
0E
0D
0C
1B
1V
0W
0X
0Y
1h
1i
1j
0k
#570000
12
1E
1Y
0h
#580000
02
11
0E
1D
1X
0Y
1h
0i
#590000
12
1E
1Y
0h
#600000
02
01
10
0E
0D
1C
1W
0X
0Y
1h
1i
0j
#610000
12
1E
1Y
0h
#620000
02
11
0E
1D
1X
0Y
1h
0i
#630000
12
1E
1Y
0h
#640000
02
01
00
0/
0.
0-
1,
0E
0D
0C
0B
0A
0@
1?
1\
0[
0Z
0V
0W
0X
0Y
1h
1i
1j
1k
1l
1m
0n
#650000
12
1E
1Y
0h
#660000
02
11
0E
1D
1X
0Y
1h
0i
#670000
12
1E
1Y
0h
#680000
02
01
10
0E
0D
1C
1W
0X
0Y
1h
1i
0j
#690000
12
1E
1Y
0h
#700000
02
11
0E
1D
1X
0Y
1h
0i
#710000
12
1E
1Y
0h
#720000
02
01
00
1/
0E
0D
0C
1B
1V
0W
0X
0Y
1h
1i
1j
0k
#730000
12
1E
1Y
0h
#740000
02
11
0E
1D
1X
0Y
1h
0i
#750000
12
1E
1Y
0h
#760000
02
01
10
0E
0D
1C
1W
0X
0Y
1h
1i
0j
#770000
12
1E
1Y
0h
#780000
02
11
0E
1D
1X
0Y
1h
0i
#790000
12
1E
1Y
0h
#800000
02
01
00
0/
1.
0E
0D
0C
0B
1A
1Z
0V
0W
0X
0Y
1h
1i
1j
1k
0l
#810000
12
1E
1Y
0h
#820000
02
11
0E
1D
1X
0Y
1h
0i
#830000
12
1E
1Y
0h
#840000
02
01
10
0E
0D
1C
1W
0X
0Y
1h
1i
0j
#850000
12
1E
1Y
0h
#860000
02
11
0E
1D
1X
0Y
1h
0i
#870000
12
1E
1Y
0h
#880000
02
01
00
1/
0E
0D
0C
1B
1V
0W
0X
0Y
1h
1i
1j
0k
#890000
12
1E
1Y
0h
#900000
02
11
0E
1D
1X
0Y
1h
0i
#910000
12
1E
1Y
0h
#920000
02
01
10
0E
0D
1C
1W
0X
0Y
1h
1i
0j
#930000
12
1E
1Y
0h
#940000
02
11
0E
1D
1X
0Y
1h
0i
#950000
12
1E
1Y
0h
#960000
02
01
00
0/
0.
1-
0E
0D
0C
0B
0A
1@
1[
0Z
0V
0W
0X
0Y
1h
1i
1j
1k
1l
0m
#970000
12
1E
1Y
0h
#980000
02
11
0E
1D
1X
0Y
1h
0i
#990000
12
1E
1Y
0h
