DESCOMP/AULA2/ATV2/simulation/qsim/Aula2.msim.vcd
$comment
	File created using the following command:
		vcd file Aula2.msim.vcd -direction
$end
$date
	Tue Feb 20 17:23:57 2024
$end
$version
	ModelSim Version 2020.1
$end
$timescale
	1ps
$end

$scope module aula2_vhd_vec_tst $end
$var wire 1 ! CLOCK_50 $end
$var wire 1 " KEY [3] $end
$var wire 1 # KEY [2] $end
$var wire 1 $ KEY [1] $end
$var wire 1 % KEY [0] $end
$var wire 1 & LEDR [9] $end
$var wire 1 ' LEDR [8] $end
$var wire 1 ( LEDR [7] $end
$var wire 1 ) LEDR [6] $end
$var wire 1 * LEDR [5] $end
$var wire 1 + LEDR [4] $end
$var wire 1 , LEDR [3] $end
$var wire 1 - LEDR [2] $end
$var wire 1 . LEDR [1] $end
$var wire 1 / LEDR [0] $end
$var wire 1 0 PC_OUT [2] $end
$var wire 1 1 PC_OUT [1] $end
$var wire 1 2 PC_OUT [0] $end
$var wire 1 3 SW [9] $end
$var wire 1 4 SW [8] $end
$var wire 1 5 SW [7] $end
$var wire 1 6 SW [6] $end
$var wire 1 7 SW [5] $end
$var wire 1 8 SW [4] $end
$var wire 1 9 SW [3] $end
$var wire 1 : SW [2] $end
$var wire 1 ; SW [1] $end
$var wire 1 < SW [0] $end

$scope module i1 $end
$var wire 1 = gnd $end
$var wire 1 > vcc $end
$var wire 1 ? unknown $end
$var wire 1 @ devoe $end
$var wire 1 A devclrn $end
$var wire 1 B devpor $end
$var wire 1 C ww_devoe $end
$var wire 1 D ww_devclrn $end
$var wire 1 E ww_devpor $end
$var wire 1 F ww_CLOCK_50 $end
$var wire 1 G ww_KEY [3] $end
$var wire 1 H ww_KEY [2] $end
$var wire 1 I ww_KEY [1] $end
$var wire 1 J ww_KEY [0] $end
$var wire 1 K ww_SW [9] $end
$var wire 1 L ww_SW [8] $end
$var wire 1 M ww_SW [7] $end
$var wire 1 N ww_SW [6] $end
$var wire 1 O ww_SW [5] $end
$var wire 1 P ww_SW [4] $end
$var wire 1 Q ww_SW [3] $end
$var wire 1 R ww_SW [2] $end
$var wire 1 S ww_SW [1] $end
$var wire 1 T ww_SW [0] $end
$var wire 1 U ww_PC_OUT [2] $end
$var wire 1 V ww_PC_OUT [1] $end
$var wire 1 W ww_PC_OUT [0] $end
$var wire 1 X ww_LEDR [9] $end
$var wire 1 Y ww_LEDR [8] $end
$var wire 1 Z ww_LEDR [7] $end
$var wire 1 [ ww_LEDR [6] $end
$var wire 1 \ ww_LEDR [5] $end
$var wire 1 ] ww_LEDR [4] $end
$var wire 1 ^ ww_LEDR [3] $end
$var wire 1 _ ww_LEDR [2] $end
$var wire 1 ` ww_LEDR [1] $end
$var wire 1 a ww_LEDR [0] $end
$var wire 1 b \CLOCK_50~input_o\ $end
$var wire 1 c \KEY[1]~input_o\ $end
$var wire 1 d \KEY[2]~input_o\ $end
$var wire 1 e \KEY[3]~input_o\ $end
$var wire 1 f \SW[4]~input_o\ $end
$var wire 1 g \SW[5]~input_o\ $end
$var wire 1 h \~QUARTUS_CREATED_GND~I_combout\ $end
$var wire 1 i \KEY[0]~input_o\ $end
$var wire 1 j \KEY[0]~inputCLKENA0_outclk\ $end
$var wire 1 k \PC|DOUT[0]~2_combout\ $end
$var wire 1 l \PC|DOUT[1]~0_combout\ $end
$var wire 1 m \PC|DOUT[1]~DUPLICATE_q\ $end
$var wire 1 n \PC|DOUT[2]~1_combout\ $end
$var wire 1 o \PC|DOUT[2]~DUPLICATE_q\ $end
$var wire 1 p \SW[6]~input_o\ $end
$var wire 1 q \ULA1|Add0~18_cout\ $end
$var wire 1 r \ULA1|Add0~1_sumout\ $end
$var wire 1 s \SW[0]~input_o\ $end
$var wire 1 t \ROM1|memROM~0_combout\ $end
$var wire 1 u \ROM1|memROM~2_combout\ $end
$var wire 1 v \ROM1|memROM~1_combout\ $end
$var wire 1 w \SW[7]~input_o\ $end
$var wire 1 x \ULA1|Add0~2\ $end
$var wire 1 y \ULA1|Add0~5_sumout\ $end
$var wire 1 z \SW[1]~input_o\ $end
$var wire 1 { \SW[8]~input_o\ $end
$var wire 1 | \ULA1|Add0~6\ $end
$var wire 1 } \ULA1|Add0~9_sumout\ $end
$var wire 1 ~ \SW[2]~input_o\ $end
$var wire 1 !! \SW[9]~input_o\ $end
$var wire 1 "! \ULA1|Add0~10\ $end
$var wire 1 #! \ULA1|Add0~13_sumout\ $end
$var wire 1 $! \SW[3]~input_o\ $end
$var wire 1 %! \REGA|DOUT\ [3] $end
$var wire 1 &! \REGA|DOUT\ [2] $end
$var wire 1 '! \REGA|DOUT\ [1] $end
$var wire 1 (! \REGA|DOUT\ [0] $end
$var wire 1 )! \PC|DOUT\ [2] $end
$var wire 1 *! \PC|DOUT\ [1] $end
$var wire 1 +! \PC|DOUT\ [0] $end
$var wire 1 ,! \REGA|ALT_INV_DOUT\ [3] $end
$var wire 1 -! \REGA|ALT_INV_DOUT\ [2] $end
$var wire 1 .! \REGA|ALT_INV_DOUT\ [1] $end
$var wire 1 /! \REGA|ALT_INV_DOUT\ [0] $end
$var wire 1 0! \PC|ALT_INV_DOUT\ [2] $end
$var wire 1 1! \PC|ALT_INV_DOUT\ [1] $end
$var wire 1 2! \PC|ALT_INV_DOUT\ [0] $end
$var wire 1 3! \ROM1|ALT_INV_memROM~0_combout\ $end
$var wire 1 4! \ROM1|ALT_INV_memROM~2_combout\ $end
$var wire 1 5! \PC|ALT_INV_DOUT[2]~DUPLICATE_q\ $end
$var wire 1 6! \ALT_INV_SW[9]~input_o\ $end
$var wire 1 7! \ALT_INV_SW[8]~input_o\ $end
$var wire 1 8! \ALT_INV_SW[7]~input_o\ $end
$var wire 1 9! \ALT_INV_SW[6]~input_o\ $end
$upscope $end
$upscope $end
$enddefinitions $end
#0
$dumpvars
x!
0=
1>
x?
1@
1A
1B
1C
1D
1E
xF
xb
0c
0d
0e
0f
0g
xh
0i
0j
1k
0l
0m
0n
0o
1p
0q
1r
1s
1t
1u
0v
1w
0x
1y
1z
0{
0|
0}
0~
0!!
0"!
0#!
0$!
03!
04!
15!
16!
17!
08!
09!
0"
0#
0$
0%
03
04
15
16
07
08
09
0:
1;
1<
0G
0H
0I
0J
0K
0L
1M
1N
0O
0P
0Q
0R
1S
1T
0U
0V
0W
1X
0Y
1Z
1[
0\
0]
0^
0_
0`
0a
0%!
0&!
0'!
0(!
0)!
0*!
0+!
1,!
1-!
1.!
1/!
10!
11!
12!
1&
0'
1(
1)
0*
0+
0,
0-
0.
0/
00
01
02
$end
#20000
1%
1J
1i
1j
1+!
02!
0k
1l
0t
1v
13!
1W
12
1Y
0Z
0(
1'
#40000
0%
1:
1$
0J
1I
1R
1~
1c
0i
0j
#60000
1%
1J
1i
1j
0+!
1*!
1m
1(!
1'!
0.!
0/!
01!
12!
1k
0r
1x
0y
1|
1`
1a
1V
0W
1}
1y
1/
1.
02
11
#80000
0%
0:
0$
19
1#
0J
0I
1H
0R
1Q
1$!
0~
1d
0c
0i
0j
#100000
1%
1J
1i
1j
1+!
0(!
1&!
0-!
1/!
02!
0k
0l
1n
1r
0x
0}
1"!
1_
0a
1W
1#!
0y
0/
1-
12
#120000
0%
1:
1$
0J
1I
1R
1~
1c
0i
0j
#140000
1%
1J
1i
1j
0+!
0*!
0m
1)!
1o
1(!
0'!
0&!
1%!
0,!
1-!
1.!
0/!
05!
00!
11!
12!
1k
1q
0|
1^
0_
0`
1a
1U
0V
0W
1}
0"!
0r
1x
0[
1/
0.
0-
1,
02
01
10
1y
0#!
0)
#160000
0%
0:
0$
09
0#
18
1"
0J
0I
0H
1G
0R
0Q
1P
1f
0$!
0~
1e
0d
0c
0i
0j
#180000
1%
1J
1i
1j
1+!
0(!
1'!
1&!
0%!
1,!
0-!
0.!
1/!
02!
0k
1l
0u
0v
1r
0x
0y
1|
0}
1"!
1#!
14!
0^
1_
1`
0a
1W
0#!
1}
1y
0|
0/
1.
1-
0,
12
0}
0Y
0X
0'
0&
#200000
0%
1:
1$
0J
1I
1R
1~
1c
0i
0j
#220000
1%
1J
1i
1j
0+!
1*!
1m
01!
12!
1k
1V
0W
02
11
#240000
0%
0:
0$
19
1#
0J
0I
1H
0R
1Q
1$!
0~
1d
0c
0i
0j
#260000
1%
1J
1i
1j
1+!
02!
0k
0l
0n
1W
12
#280000
0%
1:
1$
0J
1I
1R
1~
1c
0i
0j
#300000
1%
1J
1i
1j
0+!
0*!
0m
0)!
0o
15!
10!
11!
12!
1k
0r
1x
1}
0"!
0q
1t
1u
0y
1|
1#!
04!
03!
0U
0V
0W
0}
1"!
1r
0x
0#!
1y
1[
0'!
0&!
02
01
00
0y
1#!
1-!
1.!
1)
1X
1Z
1y
0|
1}
0"!
1(
1&
0_
0`
0#!
0}
0.
0-
#320000
0%
0:
0$
09
0#
08
0"
0J
0I
0H
0G
0R
0Q
0P
0f
0$!
0~
0e
0d
0c
0i
0j
#340000
1%
1J
1i
1j
1+!
02!
0k
1l
0t
1v
13!
1W
12
1Y
0Z
0(
1'
#360000
0%
1:
1$
0J
1I
1R
1~
1c
0i
0j
#380000
1%
1J
1i
1j
0+!
1*!
1m
1(!
1'!
0.!
0/!
01!
12!
1k
0r
1x
0y
1|
1`
1a
1V
0W
1}
1y
1/
1.
02
11
#400000
0%
0:
0$
19
1#
0J
0I
1H
0R
1Q
1$!
0~
1d
0c
0i
0j
#420000
1%
1J
1i
1j
1+!
0(!
1&!
0-!
1/!
02!
0k
0l
1n
1r
0x
0}
1"!
1_
0a
1W
1#!
0y
0/
1-
12
#440000
0%
1:
1$
0J
1I
1R
1~
1c
0i
0j
#460000
1%
1J
1i
1j
0+!
0*!
0m
1)!
1o
1(!
0'!
0&!
1%!
0,!
1-!
1.!
0/!
05!
00!
11!
12!
1k
1q
0|
1^
0_
0`
1a
1U
0V
0W
1}
0"!
0r
1x
0[
1/
0.
0-
1,
02
01
10
1y
0#!
0)
#480000
0%
0:
0$
09
0#
18
1"
0J
0I
0H
1G
0R
0Q
1P
1f
0$!
0~
1e
0d
0c
0i
0j
#500000
1%
1J
1i
1j
1+!
0(!
1'!
1&!
0%!
1,!
0-!
0.!
1/!
02!
0k
1l
0u
0v
1r
0x
0y
1|
0}
1"!
1#!
14!
0^
1_
1`
0a
1W
0#!
1}
1y
0|
0/
1.
1-
0,
12
0}
0Y
0X
0'
0&
#520000
0%
1:
1$
0J
1I
1R
1~
1c
0i
0j
#540000
1%
1J
1i
1j
0+!
1*!
1m
01!
12!
1k
1V
0W
02
11
#560000
0%
0:
0$
19
1#
0J
0I
1H
0R
1Q
1$!
0~
1d
0c
0i
0j
#580000
1%
1J
1i
1j
1+!
02!
0k
0l
0n
1W
12
#600000
0%
1:
1$
0J
1I
1R
1~
1c
0i
0j
#620000
1%
1J
1i
1j
0+!
0*!
0m
0)!
0o
15!
10!
11!
12!
1k
0r
1x
1}
0"!
0q
1t
1u
0y
1|
1#!
04!
03!
0U
0V
0W
0}
1"!
1r
0x
0#!
1y
1[
0'!
0&!
02
01
00
0y
1#!
1-!
1.!
1)
1X
1Z
1y
0|
1}
0"!
1(
1&
0_
0`
0#!
0}
0.
0-
#640000
0%
0:
0$
09
0#
08
0"
0J
0I
0H
0G
0R
0Q
0P
0f
0$!
0~
0e
0d
0c
0i
0j
#660000
1%
1J
1i
1j
1+!
02!
0k
1l
0t
1v
13!
1W
12
1Y
0Z
0(
1'
#680000
0%
1:
1$
0J
1I
1R
1~
1c
0i
0j
#700000
1%
1J
1i
1j
0+!
1*!
1m
1(!
1'!
0.!
0/!
01!
12!
1k
0r
1x
0y
1|
1`
1a
1V
0W
1}
1y
1/
1.
02
11
#720000
0%
0:
0$
19
1#
0J
0I
1H
0R
1Q
1$!
0~
1d
0c
0i
0j
#740000
1%
1J
1i
1j
1+!
0(!
1&!
0-!
1/!
02!
0k
0l
1n
1r
0x
0}
1"!
1_
0a
1W
1#!
0y
0/
1-
12
#760000
0%
1:
1$
0J
1I
1R
1~
1c
0i
0j
#780000
1%
1J
1i
1j
0+!
0*!
0m
1)!
1o
1(!
0'!
0&!
1%!
0,!
1-!
1.!
0/!
05!
00!
11!
12!
1k
1q
0|
1^
0_
0`
1a
1U
0V
0W
1}
0"!
0r
1x
0[
1/
0.
0-
1,
02
01
10
1y
0#!
0)
#800000
0%
0:
0$
09
0#
18
1"
0J
0I
0H
1G
0R
0Q
1P
1f
0$!
0~
1e
0d
0c
0i
0j
#820000
1%
1J
1i
1j
1+!
0(!
1'!
1&!
0%!
1,!
0-!
0.!
1/!
02!
0k
1l
0u
0v
1r
0x
0y
1|
0}
1"!
1#!
14!
0^
1_
1`
0a
1W
0#!
1}
1y
0|
0/
1.
1-
0,
12
0}
0Y
0X
0'
0&
#840000
0%
1:
1$
0J
1I
1R
1~
1c
0i
0j
#860000
1%
1J
1i
1j
0+!
1*!
1m
01!
12!
1k
1V
0W
02
11
#880000
0%
0:
0$
19
1#
0J
0I
1H
0R
1Q
1$!
0~
1d
0c
0i
0j
#900000
1%
1J
1i
1j
1+!
02!
0k
0l
0n
1W
12
#920000
0%
1:
1$
0J
1I
1R
1~
1c
0i
0j
#940000
1%
1J
1i
1j
0+!
0*!
0m
0)!
0o
15!
10!
11!
12!
1k
0r
1x
1}
0"!
0q
1t
1u
0y
1|
1#!
04!
03!
0U
0V
0W
0}
1"!
1r
0x
0#!
1y
1[
0'!
0&!
02
01
00
0y
1#!
1-!
1.!
1)
1X
1Z
1y
0|
1}
0"!
1(
1&
0_
0`
0#!
0}
0.
0-
#960000
0%
0:
0$
09
0#
08
0"
0J
0I
0H
0G
0R
0Q
0P
0f
0$!
0~
0e
0d
0c
0i
0j
#980000
1%
1J
1i
1j
1+!
02!
0k
1l
0t
1v
13!
1W
12
1Y
0Z
0(
1'
