DESCOMP/AULA3/simulation/qsim/Aula3.msim.vcd
$comment
	File created using the following command:
		vcd file Aula3.msim.vcd -direction
$end
$date
	Thu Feb 29 17:06:01 2024
$end
$version
	ModelSim Version 2020.1
$end
$timescale
	1ps
$end

$scope module aula3_vhd_vec_tst $end
$var wire 1 ! CLOCK_50 $end
$var wire 1 " KEY [3] $end
$var wire 1 # KEY [2] $end
$var wire 1 $ KEY [1] $end
$var wire 1 % KEY [0] $end
$var wire 1 & LEDR [9] $end
$var wire 1 ' LEDR [8] $end
$var wire 1 ( LEDR [7] $end
$var wire 1 ) LEDR [6] $end
$var wire 1 * LEDR [5] $end
$var wire 1 + LEDR [4] $end
$var wire 1 , LEDR [3] $end
$var wire 1 - LEDR [2] $end
$var wire 1 . LEDR [1] $end
$var wire 1 / LEDR [0] $end
$var wire 1 0 PC_OUT [2] $end
$var wire 1 1 PC_OUT [1] $end
$var wire 1 2 PC_OUT [0] $end
$var wire 1 3 SW [9] $end
$var wire 1 4 SW [8] $end
$var wire 1 5 SW [7] $end
$var wire 1 6 SW [6] $end
$var wire 1 7 SW [5] $end
$var wire 1 8 SW [4] $end
$var wire 1 9 SW [3] $end
$var wire 1 : SW [2] $end
$var wire 1 ; SW [1] $end
$var wire 1 < SW [0] $end

$scope module i1 $end
$var wire 1 = gnd $end
$var wire 1 > vcc $end
$var wire 1 ? unknown $end
$var wire 1 @ devoe $end
$var wire 1 A devclrn $end
$var wire 1 B devpor $end
$var wire 1 C ww_devoe $end
$var wire 1 D ww_devclrn $end
$var wire 1 E ww_devpor $end
$var wire 1 F ww_CLOCK_50 $end
$var wire 1 G ww_KEY [3] $end
$var wire 1 H ww_KEY [2] $end
$var wire 1 I ww_KEY [1] $end
$var wire 1 J ww_KEY [0] $end
$var wire 1 K ww_SW [9] $end
$var wire 1 L ww_SW [8] $end
$var wire 1 M ww_SW [7] $end
$var wire 1 N ww_SW [6] $end
$var wire 1 O ww_SW [5] $end
$var wire 1 P ww_SW [4] $end
$var wire 1 Q ww_SW [3] $end
$var wire 1 R ww_SW [2] $end
$var wire 1 S ww_SW [1] $end
$var wire 1 T ww_SW [0] $end
$var wire 1 U ww_PC_OUT [2] $end
$var wire 1 V ww_PC_OUT [1] $end
$var wire 1 W ww_PC_OUT [0] $end
$var wire 1 X ww_LEDR [9] $end
$var wire 1 Y ww_LEDR [8] $end
$var wire 1 Z ww_LEDR [7] $end
$var wire 1 [ ww_LEDR [6] $end
$var wire 1 \ ww_LEDR [5] $end
$var wire 1 ] ww_LEDR [4] $end
$var wire 1 ^ ww_LEDR [3] $end
$var wire 1 _ ww_LEDR [2] $end
$var wire 1 ` ww_LEDR [1] $end
$var wire 1 a ww_LEDR [0] $end
$var wire 1 b \KEY[1]~input_o\ $end
$var wire 1 c \KEY[2]~input_o\ $end
$var wire 1 d \KEY[3]~input_o\ $end
$var wire 1 e \SW[4]~input_o\ $end
$var wire 1 f \SW[5]~input_o\ $end
$var wire 1 g \SW[0]~input_o\ $end
$var wire 1 h \SW[1]~input_o\ $end
$var wire 1 i \SW[2]~input_o\ $end
$var wire 1 j \SW[3]~input_o\ $end
$var wire 1 k \~QUARTUS_CREATED_GND~I_combout\ $end
$var wire 1 l \KEY[0]~input_o\ $end
$var wire 1 m \CLOCK_50~input_o\ $end
$var wire 1 n \gravar:detectorSub0|saidaQ~0_combout\ $end
$var wire 1 o \gravar:detectorSub0|saidaQ~q\ $end
$var wire 1 p \gravar:detectorSub0|saida~combout\ $end
$var wire 1 q \PC|DOUT[0]~2_combout\ $end
$var wire 1 r \PC|DOUT[0]~DUPLICATE_q\ $end
$var wire 1 s \PC|DOUT[1]~0_combout\ $end
$var wire 1 t \PC|DOUT[2]~1_combout\ $end
$var wire 1 u \PC|DOUT[2]~feeder_combout\ $end
$var wire 1 v \PC|DOUT[2]~DUPLICATE_q\ $end
$var wire 1 w \SW[6]~input_o\ $end
$var wire 1 x \ULA1|Add0~18_cout\ $end
$var wire 1 y \ULA1|Add0~1_sumout\ $end
$var wire 1 z \REGA|DOUT[0]~feeder_combout\ $end
$var wire 1 { \decoderInstru1|saida[1]~1_combout\ $end
$var wire 1 | \decoderInstru1|saida[2]~2_combout\ $end
$var wire 1 } \SW[7]~input_o\ $end
$var wire 1 ~ \ULA1|Add0~2\ $end
$var wire 1 !! \ULA1|Add0~5_sumout\ $end
$var wire 1 "! \REGA|DOUT[1]~feeder_combout\ $end
$var wire 1 #! \SW[8]~input_o\ $end
$var wire 1 $! \ULA1|Add0~6\ $end
$var wire 1 %! \ULA1|Add0~9_sumout\ $end
$var wire 1 &! \SW[9]~input_o\ $end
$var wire 1 '! \ULA1|Add0~10\ $end
$var wire 1 (! \ULA1|Add0~13_sumout\ $end
$var wire 1 )! \decoderInstru1|saida[0]~0_combout\ $end
$var wire 1 *! \REGA|DOUT\ [3] $end
$var wire 1 +! \REGA|DOUT\ [2] $end
$var wire 1 ,! \REGA|DOUT\ [1] $end
$var wire 1 -! \REGA|DOUT\ [0] $end
$var wire 1 .! \PC|DOUT\ [2] $end
$var wire 1 /! \PC|DOUT\ [1] $end
$var wire 1 0! \PC|DOUT\ [0] $end
$var wire 1 1! \REGA|ALT_INV_DOUT\ [3] $end
$var wire 1 2! \REGA|ALT_INV_DOUT\ [2] $end
$var wire 1 3! \REGA|ALT_INV_DOUT\ [1] $end
$var wire 1 4! \REGA|ALT_INV_DOUT\ [0] $end
$var wire 1 5! \ULA1|ALT_INV_Add0~1_sumout\ $end
$var wire 1 6! \ULA1|ALT_INV_Add0~5_sumout\ $end
$var wire 1 7! \PC|ALT_INV_DOUT\ [2] $end
$var wire 1 8! \PC|ALT_INV_DOUT\ [1] $end
$var wire 1 9! \PC|ALT_INV_DOUT\ [0] $end
$var wire 1 :! \decoderInstru1|ALT_INV_saida[1]~1_combout\ $end
$var wire 1 ;! \PC|ALT_INV_DOUT[2]~DUPLICATE_q\ $end
$var wire 1 <! \PC|ALT_INV_DOUT[0]~DUPLICATE_q\ $end
$var wire 1 =! \ALT_INV_SW[9]~input_o\ $end
$var wire 1 >! \ALT_INV_SW[8]~input_o\ $end
$var wire 1 ?! \ALT_INV_SW[7]~input_o\ $end
$var wire 1 @! \ALT_INV_SW[6]~input_o\ $end
$var wire 1 A! \ALT_INV_KEY[0]~input_o\ $end
$var wire 1 B! \gravar:detectorSub0|ALT_INV_saidaQ~q\ $end
$var wire 1 C! \PC|ALT_INV_DOUT[2]~1_combout\ $end
$upscope $end
$upscope $end
$enddefinitions $end
#0
$dumpvars
x!
0=
1>
x?
1@
1A
1B
1C
1D
1E
xF
xb
xc
xd
xe
xf
xg
xh
xi
xj
xk
0l
xm
1n
0o
1p
1q
0r
0s
0t
0u
0v
1w
1x
1y
1z
1{
0|
1}
0~
0!!
0"!
0#!
0$!
1%!
0&!
0'!
1(!
0)!
05!
16!
0:!
1;!
1<!
1=!
1>!
0?!
0@!
1A!
1B!
1C!
x"
x#
x$
0%
03
04
15
16
x7
x8
x9
x:
x;
x<
00
01
02
0&
0'
1(
0)
0*
0+
0,
0-
0.
0/
xG
xH
xI
0J
0K
0L
1M
1N
xO
xP
xQ
xR
xS
xT
0U
0V
0W
0X
0Y
1Z
0[
0\
0]
0^
0_
0`
0a
0*!
0+!
0,!
0-!
0.!
0/!
00!
11!
12!
13!
14!
17!
18!
19!
$end
#10000
1%
1J
1l
0A!
0n
0p
#20000
0%
0J
0l
1A!
1n
1p
1r
10!
09!
0<!
0q
1s
0{
1|
1)!
0x
0y
1~
1!!
0%!
0(!
06!
15!
1:!
1W
0!!
1$!
1y
0~
0z
1"!
05!
16!
12
1!!
0$!
1%!
1[
1Y
1X
0Z
0"!
1z
06!
0%!
1)
0(
1'
1&
1"!
#30000
1%
1J
1l
0A!
0n
0p
#40000
0%
0J
0l
1A!
1n
1p
0r
1/!
00!
1-!
1,!
03!
04!
19!
08!
1<!
1q
0y
1~
0!!
1$!
16!
15!
1`
1a
1V
0W
1%!
1!!
0z
0"!
06!
1/
1.
02
11
1"!
#50000
1%
1J
1l
0A!
0n
0p
#60000
0%
0J
0l
1A!
1n
1p
1r
10!
0-!
1+!
02!
14!
09!
0<!
0q
0s
1t
1y
0~
0%!
1'!
05!
0C!
1_
0a
1W
1(!
0!!
1u
1z
16!
0/
1-
12
0"!
#70000
1%
1J
1l
0A!
0n
0p
#80000
0%
14
05
06
0J
0N
0M
1L
1#!
0}
0w
0l
1A!
1@!
1?!
0>!
1%!
1!!
0$!
0y
1n
1p
15!
06!
0r
0/!
1.!
00!
1v
1-!
0,!
0+!
1*!
0%!
1"!
0z
01!
12!
13!
04!
0;!
19!
07!
18!
1<!
1q
0)!
1x
1~
0'!
1^
0_
0`
1a
1U
0V
0W
0(!
0!!
1$!
1y
05!
16!
1/
0.
0-
1,
02
01
10
1%!
0[
0"!
1z
0)
#90000
1%
1J
1l
0A!
0n
0p
#100000
0%
04
0J
0L
0#!
0l
1A!
1>!
0%!
1'!
1n
1p
1r
10!
1+!
0*!
1(!
11!
02!
09!
0<!
0q
1s
0|
1%!
0(!
0^
1_
1W
1-
0,
12
0Y
0X
0'
0&
#110000
1%
1J
1l
0A!
0n
0p
#120000
0%
0J
0l
1A!
1n
1p
0r
1/!
00!
19!
08!
1<!
1q
1V
0W
02
11
#130000
1%
1J
1l
0A!
0n
0p
#140000
0%
0J
0l
1A!
1n
1p
1r
10!
09!
0<!
0q
0s
0t
1C!
1W
0u
12
#150000
1%
1J
1l
0A!
0n
0p
#160000
0%
0J
0l
1A!
1n
1p
0r
0/!
0.!
00!
0v
1;!
19!
17!
18!
1<!
1q
1{
0:!
0U
0V
0W
0-!
0+!
02
01
00
12!
14!
1Z
0y
0%!
1(
15!
0_
0a
0z
0/
0-
#170000
1%
1J
1l
0A!
0n
0p
#180000
0%
0J
0l
1A!
1n
1p
1r
10!
09!
0<!
0q
1s
0{
1|
1)!
0x
1y
0~
1!!
0$!
1%!
0'!
1(!
06!
05!
1:!
1W
0(!
0%!
0!!
0y
1z
1"!
15!
16!
12
1[
1Y
1X
0Z
0"!
0z
1)
0(
1'
1&
#190000
1%
1J
1l
0A!
0n
0p
#200000
0%
0J
0l
1A!
1n
1p
0r
1/!
00!
19!
08!
1<!
1q
1V
0W
02
11
#210000
1%
1J
1l
0A!
0n
0p
#220000
0%
0J
0l
1A!
1n
1p
1r
10!
09!
0<!
0q
0s
1t
0C!
1W
1u
12
#230000
1%
1J
1l
0A!
0n
0p
#240000
0%
0J
0l
1A!
1n
1p
0r
0/!
1.!
00!
1v
0;!
19!
07!
18!
1<!
1q
0)!
1x
1!!
1(!
1y
1%!
05!
06!
1U
0V
0W
0y
1~
1"!
1z
15!
02
01
10
0!!
1$!
0[
0z
16!
0%!
1'!
0)
0"!
0(!
#250000
1%
1J
1l
0A!
0n
0p
#260000
0%
0J
0l
1A!
1n
1p
1r
10!
09!
0<!
0q
1s
0|
1W
12
0Y
0X
0'
0&
#270000
1%
1J
1l
0A!
0n
0p
#280000
0%
0J
0l
1A!
1n
1p
0r
1/!
00!
19!
08!
1<!
1q
1V
0W
02
11
#290000
1%
1J
1l
0A!
0n
0p
#300000
0%
0J
0l
1A!
1n
1p
1r
10!
09!
0<!
0q
0s
0t
1C!
1W
0u
12
#310000
1%
1J
1l
0A!
0n
0p
#320000
0%
0J
0l
1A!
1n
1p
0r
0/!
0.!
00!
0v
1;!
19!
17!
18!
1<!
1q
1{
0:!
0U
0V
0W
02
01
00
1Z
1(
#330000
1%
1J
1l
0A!
0n
0p
#340000
0%
0J
0l
1A!
1n
1p
1r
10!
09!
0<!
0q
1s
0{
1|
1)!
0x
1y
0~
1!!
0$!
1%!
0'!
1(!
06!
05!
1:!
1W
0(!
0%!
0!!
0y
1z
1"!
15!
16!
12
1[
1Y
1X
0Z
0"!
0z
1)
0(
1'
1&
#350000
1%
1J
1l
0A!
0n
0p
#360000
0%
0J
0l
1A!
1n
1p
0r
1/!
00!
19!
08!
1<!
1q
1V
0W
02
11
#370000
1%
1J
1l
0A!
0n
0p
#380000
0%
0J
0l
1A!
1n
1p
1r
10!
09!
0<!
0q
0s
1t
0C!
1W
1u
12
#390000
1%
1J
1l
0A!
0n
0p
#400000
0%
0J
0l
1A!
1n
1p
0r
0/!
1.!
00!
1v
0;!
19!
07!
18!
1<!
1q
0)!
1x
1!!
1(!
1y
1%!
05!
06!
1U
0V
0W
0y
1~
1"!
1z
15!
02
01
10
0!!
1$!
0[
0z
16!
0%!
1'!
0)
0"!
0(!
#410000
1%
1J
1l
0A!
0n
0p
#420000
0%
0J
0l
1A!
1n
1p
1r
10!
09!
0<!
0q
1s
0|
1W
12
0Y
0X
0'
0&
#430000
1%
1J
1l
0A!
0n
0p
#440000
0%
0J
0l
1A!
1n
1p
0r
1/!
00!
19!
08!
1<!
1q
1V
0W
02
11
#450000
1%
1J
1l
0A!
0n
0p
#460000
0%
0J
0l
1A!
1n
1p
1r
10!
09!
0<!
0q
0s
0t
1C!
1W
0u
12
#470000
1%
1J
1l
0A!
0n
0p
#480000
0%
0J
0l
1A!
1n
1p
0r
0/!
0.!
00!
0v
1;!
19!
17!
18!
1<!
1q
1{
0:!
0U
0V
0W
02
01
00
1Z
1(
#490000
1%
1J
1l
0A!
0n
0p
#500000
0%
0J
0l
1A!
1n
1p
1r
10!
09!
0<!
0q
1s
0{
1|
1)!
0x
1y
0~
1!!
0$!
1%!
0'!
1(!
06!
05!
1:!
1W
0(!
0%!
0!!
0y
1z
1"!
15!
16!
12
1[
1Y
1X
0Z
0"!
0z
1)
0(
1'
1&
#510000
1%
1J
1l
0A!
0n
0p
#520000
0%
0J
0l
1A!
1n
1p
0r
1/!
00!
19!
08!
1<!
1q
1V
0W
02
11
#530000
1%
1J
1l
0A!
0n
0p
#540000
0%
0J
0l
1A!
1n
1p
1r
10!
09!
0<!
0q
0s
1t
0C!
1W
1u
12
#550000
1%
1J
1l
0A!
0n
0p
#560000
0%
0J
0l
1A!
1n
1p
0r
0/!
1.!
00!
1v
0;!
19!
07!
18!
1<!
1q
0)!
1x
1!!
1(!
1y
1%!
05!
06!
1U
0V
0W
0y
1~
1"!
1z
15!
02
01
10
0!!
1$!
0[
0z
16!
0%!
1'!
0)
0"!
0(!
#570000
1%
1J
1l
0A!
0n
0p
#580000
0%
0J
0l
1A!
1n
1p
1r
10!
09!
0<!
0q
1s
0|
1W
12
0Y
0X
0'
0&
#590000
1%
1J
1l
0A!
0n
0p
#600000
0%
0J
0l
1A!
1n
1p
0r
1/!
00!
19!
08!
1<!
1q
1V
0W
02
11
#610000
1%
1J
1l
0A!
0n
0p
#620000
0%
0J
0l
1A!
1n
1p
1r
10!
09!
0<!
0q
0s
0t
1C!
1W
0u
12
#630000
1%
1J
1l
0A!
0n
0p
#640000
0%
0J
0l
1A!
1n
1p
0r
0/!
0.!
00!
0v
1;!
19!
17!
18!
1<!
1q
1{
0:!
0U
0V
0W
02
01
00
1Z
1(
#650000
1%
1J
1l
0A!
0n
0p
#660000
0%
0J
0l
1A!
1n
1p
1r
10!
09!
0<!
0q
1s
0{
1|
1)!
0x
1y
0~
1!!
0$!
1%!
0'!
1(!
06!
05!
1:!
1W
0(!
0%!
0!!
0y
1z
1"!
15!
16!
12
1[
1Y
1X
0Z
0"!
0z
1)
0(
1'
1&
#670000
1%
1J
1l
0A!
0n
0p
#680000
0%
0J
0l
1A!
1n
1p
0r
1/!
00!
19!
08!
1<!
1q
1V
0W
02
11
#690000
1%
1J
1l
0A!
0n
0p
#700000
0%
0J
0l
1A!
1n
1p
1r
10!
09!
0<!
0q
0s
1t
0C!
1W
1u
12
#710000
1%
1J
1l
0A!
0n
0p
#720000
0%
0J
0l
1A!
1n
1p
0r
0/!
1.!
00!
1v
0;!
19!
07!
18!
1<!
1q
0)!
1x
1!!
1(!
1y
1%!
05!
06!
1U
0V
0W
0y
1~
1"!
1z
15!
02
01
10
0!!
1$!
0[
0z
16!
0%!
1'!
0)
0"!
0(!
#730000
1%
1J
1l
0A!
0n
0p
#740000
0%
0J
0l
1A!
1n
1p
1r
10!
09!
0<!
0q
1s
0|
1W
12
0Y
0X
0'
0&
#750000
1%
1J
1l
0A!
0n
0p
#760000
0%
0J
0l
1A!
1n
1p
0r
1/!
00!
19!
08!
1<!
1q
1V
0W
02
11
#770000
1%
1J
1l
0A!
0n
0p
#780000
0%
0J
0l
1A!
1n
1p
1r
10!
09!
0<!
0q
0s
0t
1C!
1W
0u
12
#790000
1%
1J
1l
0A!
0n
0p
#800000
0%
0J
0l
1A!
1n
1p
0r
0/!
0.!
00!
0v
1;!
19!
17!
18!
1<!
1q
1{
0:!
0U
0V
0W
02
01
00
1Z
1(
#810000
1%
1J
1l
0A!
0n
0p
#820000
0%
0J
0l
1A!
1n
1p
1r
10!
09!
0<!
0q
1s
0{
1|
1)!
0x
1y
0~
1!!
0$!
1%!
0'!
1(!
06!
05!
1:!
1W
0(!
0%!
0!!
0y
1z
1"!
15!
16!
12
1[
1Y
1X
0Z
0"!
0z
1)
0(
1'
1&
#830000
1%
1J
1l
0A!
0n
0p
#840000
0%
0J
0l
1A!
1n
1p
0r
1/!
00!
19!
08!
1<!
1q
1V
0W
02
11
#850000
1%
1J
1l
0A!
0n
0p
#860000
0%
0J
0l
1A!
1n
1p
1r
10!
09!
0<!
0q
0s
1t
0C!
1W
1u
12
#870000
1%
1J
1l
0A!
0n
0p
#880000
0%
0J
0l
1A!
1n
1p
0r
0/!
1.!
00!
1v
0;!
19!
07!
18!
1<!
1q
0)!
1x
1!!
1(!
1y
1%!
05!
06!
1U
0V
0W
0y
1~
1"!
1z
15!
02
01
10
0!!
1$!
0[
0z
16!
0%!
1'!
0)
0"!
0(!
#890000
1%
1J
1l
0A!
0n
0p
#900000
0%
0J
0l
1A!
1n
1p
1r
10!
09!
0<!
0q
1s
0|
1W
12
0Y
0X
0'
0&
#910000
1%
1J
1l
0A!
0n
0p
#920000
0%
0J
0l
1A!
1n
1p
0r
1/!
00!
19!
08!
1<!
1q
1V
0W
02
11
#930000
1%
1J
1l
0A!
0n
0p
#940000
0%
0J
0l
1A!
1n
1p
1r
10!
09!
0<!
0q
0s
0t
1C!
1W
0u
12
#950000
1%
1J
1l
0A!
0n
0p
#960000
0%
0J
0l
1A!
1n
1p
0r
0/!
0.!
00!
0v
1;!
19!
17!
18!
1<!
1q
1{
0:!
0U
0V
0W
02
01
00
1Z
1(
#970000
1%
1J
1l
0A!
0n
0p
#980000
0%
0J
0l
1A!
1n
1p
1r
10!
09!
0<!
0q
1s
0{
1|
1)!
0x
1y
0~
1!!
0$!
1%!
0'!
1(!
06!
05!
1:!
1W
0(!
0%!
0!!
0y
1z
1"!
15!
16!
12
1[
1Y
1X
0Z
0"!
0z
1)
0(
1'
1&
#990000
1%
1J
1l
0A!
0n
0p
